test_multiplier.vcd
$date
    Fri Nov 25 23:16:12 2022
$end
$version
    MyHDL 0.11
$end
$timescale
    1ns
$end

$scope module test_multiplier $end
$var reg 8 ! a $end
$var reg 8 " b $end
$var reg 1 # clk $end
$var reg 8 $ mult16 $end
$scope module WallaceTreeMultiplier0 $end
$var reg 1 # clk $end
$var reg 8 ! a $end
$var reg 8 " b $end
$var reg 8 $ mult16 $end
$upscope $end
$upscope $end

$enddefinitions $end
$dumpvars
b00000000 !
b00000000 "
0#
b00000000 $
$end
#10
1#
#20
0#
b11111000 !
b00001000 "
#30
1#
b11000000 $
#40
0#
b11110100 !
b00001010 "
#50
1#
b10001000 $
#60
0#
b00000011 !
b11110110 "
#70
1#
b11100010 $
#80
0#
b00001110 !
b11111001 "
#90
1#
b10011110 $
#100
0#
b11111100 !
b00000101 "
#110
1#
b11101100 $
#120
0#
b11110111 !
b11111100 "
#130
1#
b00100100 $
#140
0#
b00001011 !
b11110011 "
#150
1#
b10000000 $
#160
0#
b00000111 !
b00001111 "
#170
1#
b01101001 $
#180
0#
b11110110 !
b11111100 "
#190
1#
b00101000 $
#200
0#
b00010000 !
b00001000 "
#210
1#
b01111111 $
#220
0#
b00001111 !
b11111101 "
#230
1#
b11010011 $
#240
0#
b11110001 !
b00010000 "
#250
1#
b10000000 $
#260
0#
b00000010 !
b00001010 "
#270
1#
b00010100 $
#280
0#
b00001001 !
b11111011 "
#290
1#
b11010011 $
#300
0#
b11111010 !
b00001111 "
#310
1#
b10100110 $
#320
0#
b11110001 !
b11111110 "
#330
1#
b00011110 $
#340
0#
b11110000 !
b00000011 "
#350
1#
b11010000 $
#360
0#
b11111010 !
b11110010 "
#370
1#
b01010100 $
#380
0#
b00001011 !
b00000011 "
#390
1#
b00100001 $
#400
0#
b11111001 !
b11110001 "
#410
1#
b01101001 $
#420
0#
b00000001 !
b11111101 "
#430
1#
b11111101 $
#440
0#
b11111101 !
b11110010 "
#450
1#
b00101010 $
#460
0#
b11111010 !
b00000000 "
#470
1#
b00000000 $
#480
0#
b11111101 !
b11110010 "
#490
1#
b00101010 $
#500
0#
b00001111 !
b00000111 "
#510
1#
b01101001 $
#520
0#
b00000010 !
b00000110 "
#530
1#
b00001100 $
#540
0#
b00001001 !
b11111010 "
#550
1#
b11001010 $
#560
0#
b00001100 !
b11111100 "
#570
1#
b11010000 $
#580
0#
b00000010 !
b00001100 "
#590
1#
b00011000 $
#600
0#
b11111111 !
b00001111 "
#610
1#
b11110001 $
#620
0#
b11111010 !
b11110001 "
#630
1#
b01011010 $
#640
0#
b11110000 !
b00001011 "
#650
1#
b10000000 $
#660
0#
b00001001 !
b11111011 "
#670
1#
b11010011 $
#680
0#
b00001111 !
b00000010 "
#690
1#
b00011110 $
#700
0#
b00001111 "
#710
1#
b01111111 $
#720
0#
b11111100 !
b11111001 "
#730
1#
b00011100 $
#740
0#
b11111111 !
b00000000 "
#750
1#
b00000000 $
#760
0#
b11110110 !
b00000011 "
#770
1#
b11100010 $
#780
0#
b11110001 !
b11111001 "
#790
1#
b01101001 $
#800
0#
b00000111 !
b00001111 "
#810
1#
#820
0#
b11111110 !
#830
1#
b11100010 $
#840
0#
b00001010 !
b11110111 "
#850
1#
b10100110 $
#860
0#
b00010000 !
b11111001 "
#870
1#
b10010000 $
#880
0#
b00001110 !
b00000011 "
#890
1#
b00101010 $
#900
0#
b11110110 !
b00001111 "
#910
1#
b10000000 $
#920
0#
b00000111 !
b11111111 "
#930
1#
b11111001 $
#940
0#
b00000001 !
b00000001 "
#950
1#
b00000001 $
#960
0#
b11111101 !
b11111101 "
#970
1#
b00001001 $
#980
0#
b11111100 !
b11110001 "
#990
1#
b00111100 $
#1000
0#
b11110110 !
b00000000 "
#1010
1#
b00000000 $
#1020
0#
b00000001 !
b11110100 "
#1030
1#
b11110100 $
#1040
0#
b11111001 !
b11110001 "
#1050
1#
b01101001 $
#1060
0#
b00000110 !
b11111010 "
#1070
1#
b11011100 $
#1080
0#
b00000011 !
b11110011 "
#1090
1#
b11011001 $
#1100
0#
b00001000 !
b00010000 "
#1110
1#
b01111111 $
#1120
0#
b00001101 !
b11110101 "
#1130
1#
b10000000 $
#1140
0#
b00001111 !
b00001010 "
#1150
1#
b01111111 $
#1160
0#
b11111101 !
b00001110 "
#1170
1#
b11010110 $
#1180
0#
b11111011 !
b11110001 "
#1190
1#
b01001011 $
#1200
0#
b00001001 !
b11111110 "
#1210
1#
b11101110 $
#1220
0#
b11111001 !
b11110001 "
#1230
1#
b01101001 $
#1240
0#
b00001000 !
b11111110 "
#1250
1#
b11110000 $
#1260
0#
b00010000 !
b00000010 "
#1270
1#
b00100000 $
#1280
0#
b11111000 !
b11110010 "
#1290
1#
b01110000 $
#1300
0#
b11110010 !
b00000101 "
#1310
1#
b10111010 $
#1320
0#
b11110100 !
b11111010 "
#1330
1#
b01001000 $
#1340
0#
b11111001 !
b00000001 "
#1350
1#
b11111001 $
#1360
0#
b11111110 !
b00001101 "
#1370
1#
b11100110 $
#1380
0#
b11110010 !
b00000011 "
#1390
1#
b11010110 $
#1400
0#
b00001111 !
b00000100 "
#1410
1#
b00111100 $
#1420
0#
b00001000 !
b11111011 "
#1430
1#
b11011000 $
#1440
0#
b00000101 !
b00001111 "
#1450
1#
b01001011 $
#1460
0#
b00010000 !
b11111110 "
#1470
1#
b11100000 $
#1480
0#
b11110101 !
b11110000 "
#1490
1#
b01111111 $
#1500
0#
b11110100 !
b00000000 "
#1510
1#
b00000000 $
#1520
0#
b11110011 !
b11111010 "
#1530
1#
b01001110 $
#1540
0#
b00001101 !
b00001010 "
#1550
1#
b01111111 $
#1560
0#
b00001100 !
b00010000 "
#1570
1#
#1580
0#
b11111011 !
b00000101 "
#1590
1#
b11100111 $
#1600
0#
b11110100 "
#1610
1#
b00111100 $
#1620
0#
b00001000 !
b00001100 "
#1630
1#
b01100000 $
#1640
0#
b11110100 !
b11111001 "
#1650
1#
b01010100 $
#1660
0#
b00000100 !
b11111011 "
#1670
1#
b11101100 $
#1680
0#
b11110101 !
b00000001 "
#1690
1#
b11110101 $
#1700
0#
b00001101 !
b11111110 "
#1710
1#
b11100110 $
#1720
0#
b11111101 !
b00001001 "
#1730
1#
b11100101 $
#1740
0#
b00000000 !
#1750
1#
b00000000 $
#1760
0#
b00001010 !
b00000000 "
#1770
1#
#1780
0#
b11111000 !
b00000010 "
#1790
1#
b11110000 $
#1800
0#
b11111001 !
b00001100 "
#1810
1#
b10101100 $
#1820
0#
b11111100 !
b00001010 "
#1830
1#
b11011000 $
#1840
0#
b11110000 !
b00000101 "
#1850
1#
b10110000 $
#1860
0#
b11111001 !
b00001110 "
#1870
1#
b10011110 $
#1880
0#
b11110011 !
b11111001 "
#1890
1#
b01011011 $
#1900
0#
b11110100 !
b00000111 "
#1910
1#
b10101100 $
#1920
0#
b00000010 !
b00000100 "
#1930
1#
b00001000 $
#1940
0#
b00000101 !
b00000111 "
#1950
1#
b00100011 $
#1960
0#
b00000011 !
b00001110 "
#1970
1#
b00101010 $
#1980
0#
b00001100 !
b00001001 "
#1990
1#
b01101100 $
#2000
0#
b00000011 !
b00010000 "
