test_comparator.vcd
$date
    Fri Nov 25 23:19:36 2022
$end
$version
    MyHDL 0.11
$end
$timescale
    1ns
$end

$scope module test_comparator $end
$var reg 8 ! a $end
$var reg 8 " b $end
$var reg 1 # clk $end
$var reg 1 $ equal $end
$var reg 1 % greater $end
$var reg 1 & lesser $end
$scope module Comparator0 $end
$var reg 1 # clk $end
$var reg 8 ! a $end
$var reg 8 " b $end
$var reg 1 $ equal_bit $end
$var reg 1 % greater $end
$var reg 1 & lesser $end
$upscope $end
$upscope $end

$enddefinitions $end
$dumpvars
b00000000 !
b00000000 "
0#
0$
0%
0&
$end
#10
1#
1$
#20
0#
b10111010 !
b11000011 "
#30
1#
0$
1&
#40
0#
b10010010 !
b01100000 "
#50
1#
#60
0#
b00101110 !
b11101100 "
#70
1#
0&
1%
#80
0#
b10000100 !
b10000100 "
#90
1#
1$
0%
#100
0#
b00010100 !
b11110000 "
#110
1#
0$
1%
#120
0#
b01100100 !
b11011111 "
#130
1#
#140
0#
b01000010 !
b01001011 "
#150
1#
1&
0%
#160
0#
b00010111 !
b11100111 "
#170
1#
0&
1%
#180
0#
b01000110 !
b01111011 "
#190
1#
1&
0%
#200
0#
b01000010 !
b01110110 "
#210
1#
#220
0#
b01100110 !
b01111110 "
#230
1#
#240
0#
b00111101 !
b10001001 "
#250
1#
0&
1%
#260
0#
b10010011 !
b10011011 "
#270
1#
1&
0%
#280
0#
b00100000 !
b11111001 "
#290
1#
0&
1%
#300
0#
b01100111 !
b01000111 "
#310
1#
#320
0#
b11101111 !
b01000101 "
#330
1#
1&
0%
#340
0#
b10000101 !
b00100100 "
#350
1#
#360
0#
b11111101 !
b01101011 "
#370
1#
#380
0#
b10101010 !
b10000000 "
#390
1#
0&
1%
#400
0#
b01101010 !
b10000001 "
#410
1#
#420
0#
b01001000 !
b11111111 "
#430
1#
#440
0#
b01100101 !
b11101001 "
#450
1#
#460
0#
b11011010 !
b01100010 "
#470
1#
1&
0%
#480
0#
b10101000 !
b11011100 "
#490
1#
#500
0#
b00100000 !
b00110110 "
#510
1#
#520
0#
b01001111 !
b01001100 "
#530
1#
0&
1%
#540
0#
b10110101 !
b10101101 "
#550
1#
#560
0#
b00011101 !
b10100111 "
#570
1#
#580
0#
b10011000 !
b10100001 "
#590
1#
1&
0%
#600
0#
b11110101 !
b10111011 "
#610
1#
0&
1%
#620
0#
b01011000 !
b00001110 "
#630
1#
#640
0#
b00010011 !
b10101000 "
#650
1#
#660
0#
b11011001 !
b10100111 "
#670
1#
#680
0#
b00100000 !
b10111101 "
#690
1#
#700
0#
b01011001 !
b10100001 "
#710
1#
#720
0#
b11101011 !
b01011010 "
#730
1#
1&
0%
#740
0#
b01001110 !
b01011110 "
#750
1#
#760
0#
b11001011 !
b10100001 "
#770
1#
0&
1%
#780
0#
b10111101 !
b10000110 "
#790
1#
#800
0#
b11010000 !
b11001010 "
#810
1#
#820
0#
b11110110 !
b11001001 "
#830
1#
#840
0#
b11101100 !
b11110001 "
#850
1#
1&
0%
#860
0#
b10011100 !
b11101000 "
#870
1#
#880
0#
b01101100 !
b01010011 "
#890
1#
0&
1%
#900
0#
b11101010 !
b10011001 "
#910
1#
#920
0#
b00011001 !
b10100010 "
#930
1#
#940
0#
b11000110 !
b11000010 "
#950
1#
#960
0#
b01000000 !
b10010100 "
#970
1#
#980
0#
b00001001 !
b11011011 "
#990
1#
#1000
0#
b00010011 !
b10010101 "
#1010
1#
#1020
0#
b01010100 !
b00100011 "
#1030
1#
#1040
0#
b00100001 !
b01001110 "
#1050
1#
1&
0%
#1060
0#
b10101010 !
b11010101 "
#1070
1#
#1080
0#
b01100000 !
b11101110 "
#1090
1#
0&
1%
#1100
0#
b00011011 !
b00110000 "
#1110
1#
1&
0%
#1120
0#
b00010111 !
b01111101 "
#1130
1#
#1140
0#
b00011111 !
b00001110 "
#1150
1#
0&
1%
#1160
0#
b11010011 !
b01110111 "
#1170
1#
1&
0%
#1180
0#
b10000101 !
b00010011 "
#1190
1#
#1200
0#
b11111110 !
b11011110 "
#1210
1#
0&
1%
#1220
0#
b00100100 !
b01001100 "
#1230
1#
1&
0%
#1240
0#
b00010010 !
b01100001 "
#1250
1#
#1260
0#
b11011110 !
b11001111 "
#1270
1#
0&
1%
#1280
0#
b11110101 !
b00101000 "
#1290
1#
1&
0%
#1300
0#
b11011110 !
b10010111 "
#1310
1#
0&
1%
#1320
0#
b01001000 !
b11100111 "
#1330
1#
#1340
0#
b00101110 !
b10001000 "
#1350
1#
#1360
0#
b00010010 !
b00000111 "
#1370
1#
#1380
0#
b11000011 !
b00000010 "
#1390
1#
1&
0%
#1400
0#
b10001001 !
b00100011 "
#1410
1#
#1420
0#
b00100111 !
b01111001 "
#1430
1#
#1440
0#
b00101110 !
b01010001 "
#1450
1#
#1460
0#
b10100100 !
b01111010 "
#1470
1#
#1480
0#
b10111101 !
b01001010 "
#1490
1#
#1500
0#
b10100010 !
b00111010 "
#1510
1#
#1520
0#
b00011000 !
b00000001 "
#1530
1#
0&
1%
#1540
0#
b10100000 !
b10011101 "
#1550
1#
#1560
0#
b11011100 !
b00110011 "
#1570
1#
1&
0%
#1580
0#
b10101100 !
b00111011 "
#1590
1#
#1600
0#
b11111101 !
b01010100 "
#1610
1#
#1620
0#
b11001111 !
b10000110 "
#1630
1#
0&
1%
#1640
0#
b00101101 !
b10101001 "
#1650
1#
#1660
0#
b11010101 !
b10011000 "
#1670
1#
#1680
0#
b10100101 !
b01000010 "
#1690
1#
1&
0%
#1700
0#
b00110100 !
b10010100 "
#1710
1#
0&
1%
#1720
0#
b00001001 !
b10110000 "
#1730
1#
#1740
0#
b00101100 !
b10100101 "
#1750
1#
#1760
0#
b10111011 !
b10001011 "
#1770
1#
#1780
0#
b11101111 !
b00101110 "
#1790
1#
1&
0%
#1800
0#
b00001010 !
b01011111 "
#1810
1#
#1820
0#
b01101110 !
b10010001 "
#1830
1#
0&
1%
#1840
0#
b01010001 !
b00110011 "
#1850
1#
#1860
0#
b01010110 !
b01000000 "
#1870
1#
#1880
0#
b00011110 !
b11110100 "
#1890
1#
#1900
0#
b11110101 !
b11111011 "
#1910
1#
1&
0%
#1920
0#
b01111101 !
b01000101 "
#1930
1#
0&
1%
#1940
0#
b11101101 !
b00111010 "
#1950
1#
1&
0%
#1960
0#
b10000011 !
b00100010 "
#1970
1#
#1980
0#
b11110110 !
b00111000 "
#1990
1#
#2000
0#
b10000110 !
b11110101 "
