test_adder.vcd
$date
    Fri Nov 25 22:38:40 2022
$end
$version
    MyHDL 0.11
$end
$timescale
    1ns
$end

$scope module test_adder $end
$var reg 1 ! c0 $end
$var reg 8 " a $end
$var reg 8 # b $end
$var reg 1 $ c8 $end
$var reg 1 % clk $end
$var reg 8 & sum8 $end
$scope module CarryLookAheadAdder0 $end
$var reg 1 % clk $end
$var reg 8 " a $end
$var reg 8 # b $end
$var reg 1 ! c0 $end
$var reg 1 $ c8 $end
$var reg 8 & sum8 $end
$upscope $end
$upscope $end

$enddefinitions $end
$dumpvars
b0 !
b00000000 "
b00000000 #
b0 $
0%
b00000000 &
$end
#10
1%
#20
0%
b00100000 "
b00110110 #
#30
1%
b01010110 &
#40
0%
b10011111 "
b00101111 #
#50
1%
b11001110 &
#60
0%
b01010100 "
b01110000 #
#70
1%
b01111111 &
#80
0%
b01001100 "
b01001110 #
#90
1%
#100
0%
b10110111 "
b01110110 #
#110
1%
b1 $
b00101101 &
#120
0%
b11111110 #
#130
1%
b10110101 &
#140
0%
b01001101 "
b10011110 #
#150
1%
b0 $
b11101011 &
#160
0%
b10010111 "
b10100011 #
#170
1%
b1 $
b10000000 &
#180
0%
b11101110 "
b11111100 #
#190
1%
b11101010 &
#200
0%
b11111010 "
b11101000 #
#210
1%
b11100010 &
#220
0%
b00011101 "
b10100100 #
#230
1%
b0 $
b11000001 &
#240
0%
b10100000 "
b10000001 #
#250
1%
b1 $
b10000000 &
#260
0%
b11011011 "
b00101111 #
#270
1%
b00001010 &
#280
0%
b00001011 "
b01110110 #
#290
1%
b0 $
b01111111 &
#300
0%
b01101101 "
b00000011 #
#310
1%
b01110000 &
#320
0%
b00111100 "
b11100100 #
#330
1%
b1 $
b00100000 &
#340
0%
b00110011 "
b00110010 #
#350
1%
b0 $
b01100101 &
#360
0%
b01100011 "
b00000000 #
#370
1%
b01100011 &
#380
0%
b10101111 "
b00011001 #
#390
1%
b11001000 &
#400
0%
b10111110 "
b10011110 #
#410
1%
b1 $
b10000000 &
#420
0%
b11010110 "
b11110001 #
#430
1%
b11000111 &
#440
0%
b10011010 "
b10001010 #
#450
1%
b10000000 &
#460
0%
b00111100 "
b01000100 #
#470
1%
b0 $
b01111111 &
#480
0%
b10110110 "
b10000100 #
#490
1%
b1 $
b10000000 &
#500
0%
b11100111 "
b11000111 #
#510
1%
b10101110 &
#520
0%
b11100010 "
b11100001 #
#530
1%
b11000011 &
#540
0%
b11101110 "
b10001110 #
#550
1%
b10000000 &
#560
0%
b00011100 "
b11101111 #
#570
1%
b00001011 &
#580
0%
b00101101 "
b11001111 #
#590
1%
b0 $
b11111100 &
#600
0%
b10100010 "
b11100101 #
#610
1%
b1 $
b10000111 &
#620
0%
b00101101 "
b00110110 #
#630
1%
b0 $
b01100011 &
#640
0%
b01001111 "
b11010000 #
#650
1%
b1 $
b00011111 &
#660
0%
b01010010 "
b11011010 #
#670
1%
b00101100 &
#680
0%
b01101000 "
b10110111 #
#690
1%
b00011111 &
#700
0%
b10100101 "
b11011010 #
#710
1%
b10000000 &
#720
0%
b00001101 "
b00101111 #
#730
1%
b0 $
b00111100 &
#740
0%
b01011011 "
b01111000 #
#750
1%
b01111111 &
#760
0%
b10010000 "
b00011100 #
#770
1%
b10101100 &
#780
0%
b01000101 "
b11011011 #
#790
1%
b1 $
b00100000 &
#800
0%
b10111111 "
b11100010 #
#810
1%
b10100001 &
#820
0%
b01111100 "
b00101010 #
#830
1%
b0 $
b01111111 &
#840
0%
b01010001 "
b10011100 #
#850
1%
b11101101 &
#860
0%
b11010010 "
b01000011 #
#870
1%
b1 $
b00010101 &
#880
0%
b11100011 "
b00100111 #
#890
1%
b00001010 &
#900
0%
b01100111 "
b11000111 #
#910
1%
b00101110 &
#920
0%
b10101111 "
b11100001 #
#930
1%
b10010000 &
#940
0%
b10110100 "
b00111000 #
#950
1%
b0 $
b11101100 &
#960
0%
b00101111 "
b11001100 #
#970
1%
b11111011 &
#980
0%
b11011001 "
b00010100 #
#990
1%
b11101101 &
#1000
0%
b10100000 "
b00100010 #
#1010
1%
b11000010 &
#1020
0%
b01001111 "
b11000000 #
#1030
1%
b1 $
b00001111 &
#1040
0%
b01001000 "
b01010100 #
#1050
1%
b0 $
b01111111 &
#1060
0%
b11011011 "
b00111111 #
#1070
1%
b1 $
b00011010 &
#1080
0%
b11000111 "
b10000011 #
#1090
1%
b10000000 &
#1100
0%
b11010010 "
b10010011 #
#1110
1%
#1120
0%
b01111111 "
b00110000 #
#1130
1%
b0 $
b01111111 &
#1140
0%
b10011011 "
b00001111 #
#1150
1%
b10101010 &
#1160
0%
b00101011 "
b01101001 #
#1170
1%
b01111111 &
#1180
0%
b00000111 "
b00110110 #
#1190
1%
b00111101 &
#1200
0%
b00010010 "
b11101111 #
#1210
1%
b1 $
b00000001 &
#1220
0%
b00110100 "
b10111001 #
#1230
1%
b0 $
b11101101 &
#1240
0%
b00011101 "
b10010100 #
#1250
1%
b10110001 &
#1260
0%
b10100101 "
b01110101 #
#1270
1%
b1 $
b00011010 &
#1280
0%
b11110110 "
b00110001 #
#1290
1%
b00100111 &
#1300
0%
b00001000 "
b10111011 #
#1310
1%
b0 $
b11000011 &
#1320
0%
b11101000 "
b01000000 #
#1330
1%
b1 $
b00101000 &
#1340
0%
b01111110 "
b11111001 #
#1350
1%
b01110111 &
#1360
0%
b11110111 "
b00111110 #
#1370
1%
b00110101 &
#1380
0%
b00000111 "
b01100111 #
#1390
1%
b0 $
b01101110 &
#1400
0%
b10011001 "
b10100101 #
#1410
1%
b1 $
b10000000 &
#1420
0%
b11010010 "
b01111110 #
#1430
1%
b01010000 &
#1440
0%
b11000111 "
b10000001 #
#1450
1%
b10000000 &
#1460
0%
b11010001 "
b00011100 #
#1470
1%
b0 $
b11101101 &
#1480
0%
b11111001 "
b01110011 #
#1490
1%
b1 $
b01101100 &
#1500
0%
b10010000 "
b10011101 #
#1510
1%
b10000000 &
#1520
0%
b10010001 "
b10011000 #
#1530
1%
#1540
0%
b10101010 "
b10100001 #
#1550
1%
#1560
0%
b00000000 "
b10110001 #
#1570
1%
b0 $
b10110001 &
#1580
0%
b11000011 "
b11000101 #
#1590
1%
b1 $
b10001000 &
#1600
0%
b10000011 "
b11000000 #
#1610
1%
b10000000 &
#1620
0%
b01101001 "
b00011110 #
#1630
1%
b0 $
b01111111 &
#1640
0%
b11010111 "
b10100011 #
#1650
1%
b1 $
b10000000 &
#1660
0%
b10011000 "
b01101000 #
#1670
1%
b00000000 &
#1680
0%
b10000011 "
b10101010 #
#1690
1%
b10000000 &
#1700
0%
b10100110 "
b10001111 #
#1710
1%
#1720
0%
b11011101 "
b10111101 #
#1730
1%
b10011010 &
#1740
0%
b01101001 "
b00101101 #
#1750
1%
b0 $
b01111111 &
#1760
0%
b00010011 "
b10110101 #
#1770
1%
b11001000 &
#1780
0%
b01000110 "
b11011011 #
#1790
1%
b1 $
b00100001 &
#1800
0%
b10001010 "
b01100010 #
#1810
1%
b0 $
b11101100 &
#1820
0%
b11001011 "
b11101100 #
#1830
1%
b1 $
b10110111 &
#1840
0%
b11111010 "
b10000100 #
#1850
1%
b10000000 &
#1860
0%
b10111001 "
b00110110 #
#1870
1%
b0 $
b11101111 &
#1880
0%
b11110011 "
b10100001 #
#1890
1%
b1 $
b10010100 &
#1900
0%
b00001100 "
b00011010 #
#1910
1%
b0 $
b00100110 &
#1920
0%
b10100100 "
b11001001 #
#1930
1%
b1 $
b10000000 &
#1940
0%
b11111111 "
b10001101 #
#1950
1%
b10001100 &
#1960
0%
b00111111 "
b11001010 #
#1970
1%
b00001001 &
#1980
0%
b01100000 "
b00011101 #
#1990
1%
b0 $
b01111101 &
#2000
0%
b10010101 "
b01101101 #
